// Jest Snapshot v1, https://goo.gl/fbAQLP

exports[`snapshots default props 1`] = `
<div
  class="input__bottomLine__wrapper"
>
  <transition-stub
    mode="out-in"
    name="errorTransition"
  >
    <!---->
     
    <!---->
     
    <!---->
  </transition-stub>
</div>
`;

exports[`snapshots errorMessage 1`] = `
<div
  class="input__bottomLine__wrapper"
>
  <transition-stub
    mode="out-in"
    name="errorTransition"
  >
    <!---->
     
    <!---->
     
    <div
      class="input__bottomLine input__error"
    >
      <erroricon-stub
        nohover=""
      />
      
            server error message
        
    </div>
  </transition-stub>
</div>
`;

exports[`snapshots with hint && showError = true 1`] = `
<div
  class="input__bottomLine__wrapper"
>
  <transition-stub
    mode="out-in"
    name="errorTransition"
  >
    <!---->
     
    <div
      class="input__bottomLine input__error"
    >
      <erroricon-stub
        nohover=""
      />
      
            
        
    </div>
     
    <!---->
  </transition-stub>
</div>
`;

exports[`snapshots with hint 1`] = `
<div
  class="input__bottomLine__wrapper"
>
  <transition-stub
    mode="out-in"
    name="errorTransition"
  >
    <div
      class="input__bottomLine input__hint"
    >
      <hinticon-stub
        nohover=""
      />
      
            hint
        
    </div>
     
    <!---->
     
    <!---->
  </transition-stub>
</div>
`;
